{
	"training_objective": {
		"train_comp": true, 
        "train_decomp": false,
        "train_fg": false,
        "train_bg": false
	},
	"comp_use_side_info": true,
	"decomp_use_side_info": false,
	"real_fg": true,
	"real_bg": true,
	"eval_only": false,
	"v_size": 100,
	"pretrained_model_paths":{
		"comp_model_path": false,
		"decomp_model_path": false,
		"fg_model_path": false,
		"bg_model_path": false
	},
	"data": {
		"dataset": "mnist-background-2objs-random",
		"output_dim": 4096,
		"label_used": -1,
		"fg_Gnoise": false
	},
	"hyperparams": {
		"batch_size": 100,
		"LAMBDA": 5,
		"iters": 50000,
		"disc_iters": 1,
		"comp_disc_dim": 32,
		"comp_gen_dim": 32,
		"decomp_disc_dim": 32,
		"decomp_gen_dim": 32,
		"noise_type": "Gaussian",
		"disc_learning_rate": 3e-4,
		"gen_learning_rate": 1e-4,
		"cycle_loss_p": 0
	},
	"fg_hyperparams": {
		"batch_size": 100,
		"code_size": 48,
		"gen_dim": 32,
		"noise_type": "Gaussian"
	},
	"bg_hyperparams":{
		"batch_size": 100,
		"code_size": 32,
		"gen_dim": 32,
		"noise_type": "Gaussian"
	}
}